Em que data ocorreu o maior atentado terrorista aos Estados Unidos?
11 de setembro de 2001|14 de setembro de 2001|11 de setembro de 2002|10 de agosto de 2001|12 de setembro de 2000|1

A princesa Diana morreu um acidente de:
Avião|Helicóptero|Ônibus|Carro|Trem|4

O Papa João Paulo II liderou a Igreja Católica durante 27 anos. Quando terminou seu pontificado?
Em 26 de março de 2003|Em 2 de abril de 2005|Em 1 de maio de 1999|Em 14 de fevereiro de 2006|Em 4 de abril de 2004|2

No dia 17 de julho de 2007 um avião atravessou a pista no Aeroporto de Congonhas em São Paulo e bateu contra um prédio. Quantas pessoa morreram naquele acidente?
199|226|201|178|192|1

Em que data a União Soviética teve fim?
15 de janeiro de 1990|25 de novembro de 1989|25 de janeiro de 1989|21 de novembro de 1991|25 de dezembro de 1991|5

Em quais cidades japonesas foram jogadas em 1945 duas bombas atômicas?
Tóquio e Hiroshima|Hiroshima e Nagasaki|Hiroshima e Osaka|Kobe e Osaka|Nagoya e Nagasaki|2

Qual foi a data da chegada do homem à Lua?
20 de julho de 1968|19 de julho de 1969|23 de setembro de 1970|20 de julho de 1969|15 de junho de 1969|4

Qual o nome do último papa a renunciar ao pontificado?
Bento XVI|Paulo VI|Bento XVII|João Paulo I|Francisco|1

Qual foi o primeiro presidente brasileiro a sofrer um impeachment?
Floriano Peixoto|Jânio Quadros|Fernando Collor|Itamar Franco|João Goulart|3

Em janeiro de 2011 o Brasil sofreu sua pior catástrofe climática. Em que região essa catástrofe ocorreu?
Região serrana do Rio de Janeiro|Região metropolitana do Rio de Janeiro|Baixada santista|Vale do Itajaí|Vale do Paraíba|1